…
~~~
gapminder_csv
~~~
{: .language-r}



~~~
# A tibble: 1,704 x 6
   country     continent  year lifeExp      pop gdpPercap
   <chr>       <chr>     <dbl>   <dbl>    <dbl>     <dbl>
 1 Afghanistan Asia       1952    28.8  8425333      779.
 2 Afghanistan Asia       1957    30.3  9240934      821.
 3 Afghanistan Asia       1962    32.0 10267083      853.
 4 Afghanistan Asia       1967    34.0 11537966      836.
 5 Afghanistan Asia       1972    36.1 13079460      740.
 6 Afghanistan Asia       1977    38.4 14880372      786.
 7 Afghanistan Asia       1982    39.9 12881816      978.
 8 Afghanistan Asia       1987    40.8 13867957      852.
 9 Afghanistan Asia       1992    41.7 16317921      649.
10 Afghanistan Asia       1997    41.8 22227415      635.
# … with 1,694 more rows
…
>  
> > ## Solution to Challenge 2
> > 
> > 
> > ~~~
> > gapminder_tsv <- read_tsv("data/gapminder.tsv")
> > 
> > gapminder_tsv
> > ~~~
> > {: .language-r}
> > 
> > 
> > 
> > ~~~
> > # A tibble: 1,704 x 6
> >    country     continent  year lifeExp      pop gdpPercap
> >    <chr>       <chr>     <dbl>   <dbl>    <dbl>     <dbl>
> >  1 Afghanistan Asia       1952    28.8  8425333      779.
> >  2 Afghanistan Asia       1957    30.3  9240934      821.
> >  3 Afghanistan Asia       1962    32.0 10267083      853.
> >  4 Afghanistan Asia       1967    34.0 11537966      836.
> >  5 Afghanistan Asia       1972    36.1 13079460      740.
> >  6 Afghanistan Asia       1977    38.4 14880372      786.
> >  7 Afghanistan Asia       1982    39.9 12881816      978.
> >  8 Afghanistan Asia       1987    40.8 13867957      852.
> >  9 Afghanistan Asia       1992    41.7 16317921      649.
> > 10 Afghanistan Asia       1997    41.8 22227415      635.
> > # … with 1,694 more rows
…
Eg. setting `country` to be a factor, `pop` as an integer, and not reading in the `lifeExp` column.
The remaining columns are left as 'guess', in which case `readr` tries to determine their type automatically.

~~~
read_tsv("data/gapminder.tsv", col_types = "f??-i?")
~~~
{: .language-r}



~~~
# A tibble: 1,704 x 5
   country     continent  year      pop gdpPercap
   <fct>       <chr>     <dbl>    <int>     <dbl>
 1 Afghanistan Asia       1952  8425333      779.
 2 Afghanistan Asia       1957  9240934      821.
 3 Afghanistan Asia       1962 10267083      853.
 4 Afghanistan Asia       1967 11537966      836.
 5 Afghanistan Asia       1972 13079460      740.
 6 Afghanistan Asia       1977 14880372      786.
 7 Afghanistan Asia       1982 12881816      978.
 8 Afghanistan Asia       1987 13867957      852.
 9 Afghanistan Asia       1992 16317921      649.
10 Afghanistan Asia       1997 22227415      635.
# … with 1,694 more rows
…
read_tsv("data/gapminder.tsv", col_types = gapminder_spec)
~~~
{: .language-r}



~~~
# A tibble: 1,704 x 5
   country     continent  year lifeExp      pop
   <fct>       <chr>     <dbl>   <dbl>    <int>
 1 Afghanistan Asia       1952    28.8  8425333
 2 Afghanistan Asia       1957    30.3  9240934
 3 Afghanistan Asia       1962    32.0 10267083
 4 Afghanistan Asia       1967    34.0 11537966
 5 Afghanistan Asia       1972    36.1 13079460
 6 Afghanistan Asia       1977    38.4 14880372
 7 Afghanistan Asia       1982    39.9 12881816
 8 Afghanistan Asia       1987    40.8 13867957
 9 Afghanistan Asia       1992    41.7 16317921
10 Afghanistan Asia       1997    41.8 22227415
# … with 1,694 more rows
…
