…
~~~
gapminder_2012
~~~
{: .language-r}



~~~
# A tibble: 134 x 6
   country     continent  year lifeExp       pop gdpPercap
   <chr>       <chr>     <dbl>   <dbl>     <dbl>     <dbl>
 1 Afghanistan Asia       2012    57.2  30700000      1840
 2 Albania     Europe     2012    77     2920000     10400
 3 Algeria     Africa     2012    76.8  37600000     13200
 4 Angola      Africa     2012    61.7  25100000      6000
 5 Argentina   Americas   2012    76.1  42100000     19200
 6 Australia   Oceania    2012    82.3  22800000     42600
 7 Austria     Europe     2012    80.9   8520000     44400
 8 Bahrain     Asia       2012    76.3   1300000     41500
 9 Bangladesh  Asia       2012    71.3 156000000      2710
10 Belgium     Europe     2012    80.3  11100000     41000
# … with 124 more rows
…
~~~
renamed_2012 <- rename(gapminder_2012, population = pop)

mismatched_names <- bind_rows(gapminder, renamed_2012)

mismatched_names
~~~
{: .language-r}



~~~
# A tibble: 1,838 x 7
   country     continent  year lifeExp      pop gdpPercap population
   <chr>       <chr>     <dbl>   <dbl>    <dbl>     <dbl>      <dbl>
 1 Afghanistan Asia       1952    28.8  8425333      779.         NA
 2 Afghanistan Asia       1957    30.3  9240934      821.         NA
 3 Afghanistan Asia       1962    32.0 10267083      853.         NA
 4 Afghanistan Asia       1967    34.0 11537966      836.         NA
 5 Afghanistan Asia       1972    36.1 13079460      740.         NA
 6 Afghanistan Asia       1977    38.4 14880372      786.         NA
 7 Afghanistan Asia       1982    39.9 12881816      978.         NA
 8 Afghanistan Asia       1987    40.8 13867957      852.         NA
 9 Afghanistan Asia       1992    41.7 16317921      649.         NA
10 Afghanistan Asia       1997    41.8 22227415      635.         NA
# … with 1,828 more rows
…
~~~
gapminder_sr
~~~
{: .language-r}



~~~
# A tibble: 1,722 x 3
   country     year sex_ratio
   <chr>      <dbl>     <dbl>
 1 Burundi     1952      91.9
 2 Comoros     1952      98.8
 3 Djibouti    1952      98.6
 4 Eritrea     1952      98.2
 5 Ethiopia    1952      98.6
 6 Kenya       1952     102. 
 7 Madagascar  1952     106. 
 8 Malawi      1952      92.3
 9 Mauritius   1952      99.2
10 Mozambique  1952      95.6
# … with 1,712 more rows
…
