…
~~~
# Named 'dest' in the first data frame and 'faa' in the second
flights %>% 
  left_join(airports, by = c("dest" = "faa")) %>% 
  select(flight, origin, dest, name)
~~~
{: .language-r}



~~~
# A tibble: 336,776 x 4
   flight origin dest  name                           
    <int> <chr>  <chr> <chr>                          
 1   1545 EWR    IAH   George Bush Intercontinental   
 2   1714 LGA    IAH   George Bush Intercontinental   
 3   1141 JFK    MIA   Miami Intl                     
 4    725 JFK    BQN   <NA>                           
 5    461 LGA    ATL   Hartsfield Jackson Atlanta Intl
 6   1696 EWR    ORD   Chicago Ohare Intl             
 7    507 EWR    FLL   Fort Lauderdale Hollywood Intl 
 8   5708 LGA    IAD   Washington Dulles Intl         
 9     79 JFK    MCO   Orlando Intl                   
10    301 LGA    ORD   Chicago Ohare Intl             
# … with 336,766 more rows
…
> ## Challenge 3
> Which is the most common route in the `flights` data and what is the destination airport name?
> > ## Solution to Challenge 3
> > 
> > ~~~
> > flights %>% 
> >   count(origin, dest, sort = T) %>% 
> >   left_join(airports, by = c("dest" = "faa"))
> > ~~~
> > {: .language-r}
> > 
> > 
> > 
> > ~~~
> > # A tibble: 224 x 10
> >    origin dest      n name            lat    lon   alt    tz dst   tzone   
> >    <chr>  <chr> <int> <chr>         <dbl>  <dbl> <int> <dbl> <chr> <chr>   
> >  1 JFK    LAX   11262 Los Angeles …  33.9 -118.    126    -8 A     America…
> >  2 LGA    ATL   10263 Hartsfield J…  33.6  -84.4  1026    -5 A     America…
> >  3 LGA    ORD    8857 Chicago Ohar…  42.0  -87.9   668    -6 A     America…
> >  4 JFK    SFO    8204 San Francisc…  37.6 -122.     13    -8 A     America…
> >  5 LGA    CLT    6168 Charlotte Do…  35.2  -80.9   748    -5 A     America…
> >  6 EWR    ORD    6100 Chicago Ohar…  42.0  -87.9   668    -6 A     America…
> >  7 JFK    BOS    5898 General Edwa…  42.4  -71.0    19    -5 A     America…
> >  8 LGA    MIA    5781 Miami Intl     25.8  -80.3     8    -5 A     America…
> >  9 JFK    MCO    5464 Orlando Intl   28.4  -81.3    96    -5 A     America…
> > 10 EWR    BOS    5327 General Edwa…  42.4  -71.0    19    -5 A     America…
> > # … with 214 more rows
…
> > we don't try to merge this with the `year` column of the `flights` data frame which records the
> > year the flight took place.
> > 
> > ~~~
> > flights %>% 
> >   inner_join(planes, by = c("tailnum")) %>%
> >   group_by(origin, dest) %>% 
> >   summarise(max_cap = sum(seats))
> > ~~~
> > {: .language-r}
> > 
> > 
> > 
> > ~~~
> > # A tibble: 222 x 3
> > # Groups:   origin [?]
> >    origin dest  max_cap
> >    <chr>  <chr>   <int>
> >  1 EWR    ALB     24145
> >  2 EWR    ANC      1068
> >  3 EWR    ATL    574312
> >  4 EWR    AUS    155181
> >  5 EWR    AVL     14575
> >  6 EWR    BDL     25178
> >  7 EWR    BNA    177368
> >  8 EWR    BOS    612894
> >  9 EWR    BQN     45280
> > 10 EWR    BTV     51205
> > # … with 212 more rows
…
