…
Read in the wide gapminder and have a look at it.


~~~
gap_wide <- read_csv("data/gapminder_wide.csv")

gap_wide
~~~
{: .language-r}



~~~
# A tibble: 142 x 38
   continent country gdpPercap_1952 gdpPercap_1957 gdpPercap_1962
   <chr>     <chr>            <dbl>          <dbl>          <dbl>
 1 Africa    Algeria          2449.          3014.          2551.
 2 Africa    Angola           3521.          3828.          4269.
 3 Africa    Benin            1063.           960.           949.
 4 Africa    Botswa…           851.           918.           984.
 5 Africa    Burkin…           543.           617.           723.
 6 Africa    Burundi           339.           380.           355.
 7 Africa    Camero…          1173.          1313.          1400.
 8 Africa    Centra…          1071.          1191.          1193.
 9 Africa    Chad             1179.          1308.          1390.
10 Africa    Comoros          1103.          1211.          1407.
# … with 132 more rows, and 33 more variables: gdpPercap_1967 <dbl>,
#   gdpPercap_1972 <dbl>, gdpPercap_1977 <dbl>, gdpPercap_1982 <dbl>,
#   gdpPercap_1987 <dbl>, gdpPercap_1992 <dbl>, gdpPercap_1997 <dbl>,
#   gdpPercap_2002 <dbl>, gdpPercap_2007 <dbl>, lifeExp_1952 <dbl>,
#   lifeExp_1957 <dbl>, lifeExp_1962 <dbl>, lifeExp_1967 <dbl>,
#   lifeExp_1972 <dbl>, lifeExp_1977 <dbl>, lifeExp_1982 <dbl>,
#   lifeExp_1987 <dbl>, lifeExp_1992 <dbl>, lifeExp_1997 <dbl>,
#   lifeExp_2002 <dbl>, lifeExp_2007 <dbl>, pop_1952 <dbl>,
#   pop_1957 <dbl>, pop_1962 <dbl>, pop_1967 <dbl>, pop_1972 <dbl>,
…
~~~
gap_long <- gap_wide %>%
    gather(obstype_year, obs_values, starts_with('pop'),
           starts_with('lifeExp'), starts_with('gdpPercap'))
gap_long
~~~
{: .language-r}



~~~
# A tibble: 5,112 x 4
   continent country                  obstype_year obs_values
   <chr>     <chr>                    <chr>             <dbl>
 1 Africa    Algeria                  pop_1952        9279525
 2 Africa    Angola                   pop_1952        4232095
 3 Africa    Benin                    pop_1952        1738315
 4 Africa    Botswana                 pop_1952         442308
 5 Africa    Burkina Faso             pop_1952        4469979
 6 Africa    Burundi                  pop_1952        2445618
 7 Africa    Cameroon                 pop_1952        5009067
 8 Africa    Central African Republic pop_1952        1291695
 9 Africa    Chad                     pop_1952        2682462
10 Africa    Comoros                  pop_1952         153936
# … with 5,102 more rows
…
~~~
gap_split <- gap_long %>% 
  separate(obstype_year, into = c('obs_type', 'year'), sep = "_")

gap_split
~~~
{: .language-r}



~~~
# A tibble: 5,112 x 5
   continent country                  obs_type year  obs_values
   <chr>     <chr>                    <chr>    <chr>      <dbl>
 1 Africa    Algeria                  pop      1952     9279525
 2 Africa    Angola                   pop      1952     4232095
 3 Africa    Benin                    pop      1952     1738315
 4 Africa    Botswana                 pop      1952      442308
 5 Africa    Burkina Faso             pop      1952     4469979
 6 Africa    Burundi                  pop      1952     2445618
 7 Africa    Cameroon                 pop      1952     5009067
 8 Africa    Central African Republic pop      1952     1291695
 9 Africa    Chad                     pop      1952     2682462
10 Africa    Comoros                  pop      1952      153936
# … with 5,102 more rows
…
> > ## Solution to Challenge 1
> > The `convert` argument will try to convert character strings to other data types when set to `TRUE`
> > 
> > ~~~
> > gap_split <- gap_long %>% 
> >   separate(obstype_year, into = c('obs_type', 'year'), sep = "_", convert = TRUE)
> > 
> > gap_split
> > ~~~
> > {: .language-r}
> > 
> > 
> > 
> > ~~~
> > # A tibble: 5,112 x 5
> >    continent country                  obs_type  year obs_values
> >    <chr>     <chr>                    <chr>    <int>      <dbl>
> >  1 Africa    Algeria                  pop       1952    9279525
> >  2 Africa    Angola                   pop       1952    4232095
> >  3 Africa    Benin                    pop       1952    1738315
> >  4 Africa    Botswana                 pop       1952     442308
> >  5 Africa    Burkina Faso             pop       1952    4469979
> >  6 Africa    Burundi                  pop       1952    2445618
> >  7 Africa    Cameroon                 pop       1952    5009067
> >  8 Africa    Central African Republic pop       1952    1291695
> >  9 Africa    Chad                     pop       1952    2682462
> > 10 Africa    Comoros                  pop       1952     153936
> > # … with 5,102 more rows
…
The opposite to `separate()` is `unite()`. Use this when you are wanting to *combine* columns into 
one long string. You provide `unite()` with the name to give the newly combined column, and the 
names of the columns to combine.


~~~
gap_split %>% 
  unite(obstype_year, obs_type, year)
~~~
{: .language-r}



~~~
# A tibble: 5,112 x 4
   continent country                  obstype_year obs_values
   <chr>     <chr>                    <chr>             <dbl>
 1 Africa    Algeria                  pop_1952        9279525
 2 Africa    Angola                   pop_1952        4232095
 3 Africa    Benin                    pop_1952        1738315
 4 Africa    Botswana                 pop_1952         442308
 5 Africa    Burkina Faso             pop_1952        4469979
 6 Africa    Burundi                  pop_1952        2445618
 7 Africa    Cameroon                 pop_1952        5009067
 8 Africa    Central African Republic pop_1952        1291695
 9 Africa    Chad                     pop_1952        2682462
10 Africa    Comoros                  pop_1952         153936
# … with 5,102 more rows
…
> original `gapminder` data.
> > ## Solution to Challenge 2
> > 
> > ~~~
> > gap_orig <- gap_split %>% 
> >   spread(obs_type, obs_values)
> > 
> > gap_orig
> > ~~~
> > {: .language-r}
> > 
> > 
> > 
> > ~~~
> > # A tibble: 1,704 x 6
> >    continent country  year gdpPercap lifeExp      pop
> >    <chr>     <chr>   <int>     <dbl>   <dbl>    <dbl>
> >  1 Africa    Algeria  1952     2449.    43.1  9279525
> >  2 Africa    Algeria  1957     3014.    45.7 10270856
> >  3 Africa    Algeria  1962     2551.    48.3 11000948
> >  4 Africa    Algeria  1967     3247.    51.4 12760499
> >  5 Africa    Algeria  1972     4183.    54.5 14760787
> >  6 Africa    Algeria  1977     4910.    58.0 17152804
> >  7 Africa    Algeria  1982     5745.    61.4 20033753
> >  8 Africa    Algeria  1987     5681.    65.8 23254956
> >  9 Africa    Algeria  1992     5023.    67.7 26298373
> > 10 Africa    Algeria  1997     4797.    69.2 29072015
> > # … with 1,694 more rows
…
~~~
gap_orig <- gap_orig %>% 
  arrange(country, continent, year) %>% 
  select(country, continent, year, lifeExp, pop, gdpPercap)

gap_orig
~~~
{: .language-r}



~~~
# A tibble: 1,704 x 6
   country     continent  year lifeExp      pop gdpPercap
   <chr>       <chr>     <int>   <dbl>    <dbl>     <dbl>
 1 Afghanistan Asia       1952    28.8  8425333      779.
 2 Afghanistan Asia       1957    30.3  9240934      821.
 3 Afghanistan Asia       1962    32.0 10267083      853.
 4 Afghanistan Asia       1967    34.0 11537966      836.
 5 Afghanistan Asia       1972    36.1 13079460      740.
 6 Afghanistan Asia       1977    38.4 14880372      786.
 7 Afghanistan Asia       1982    39.9 12881816      978.
 8 Afghanistan Asia       1987    40.8 13867957      852.
 9 Afghanistan Asia       1992    41.7 16317921      649.
10 Afghanistan Asia       1997    41.8 22227415      635.
# … with 1,694 more rows
~~~
{: .output}



~~~
gapminder
~~~
{: .language-r}



~~~
# A tibble: 1,704 x 6
   country     continent  year lifeExp      pop gdpPercap
   <chr>       <chr>     <dbl>   <dbl>    <dbl>     <dbl>
 1 Afghanistan Asia       1952    28.8  8425333      779.
 2 Afghanistan Asia       1957    30.3  9240934      821.
 3 Afghanistan Asia       1962    32.0 10267083      853.
 4 Afghanistan Asia       1967    34.0 11537966      836.
 5 Afghanistan Asia       1972    36.1 13079460      740.
 6 Afghanistan Asia       1977    38.4 14880372      786.
 7 Afghanistan Asia       1982    39.9 12881816      978.
 8 Afghanistan Asia       1987    40.8 13867957      852.
 9 Afghanistan Asia       1992    41.7 16317921      649.
10 Afghanistan Asia       1997    41.8 22227415      635.
# … with 1,694 more rows
…
